Spaceships
…
# train with full data
final_model <-
  all_workflows |>
  extract_workflow(best_wflow_id) |>
  finalize_workflow(best_params) |>
  fit(train_data)

Generate Predictions and Make Submission

The predict() function here takes a workflow or model object and outputs a dataframe to make predictions based on test_data.

predictions <- predict(final_model, test_data)
predictions

# A tibble: 4,277 × 1
   .pred_class
   <fct>      
 1 Yes        
 2 No         
 3 Yes        
 4 Yes        
 5 Yes        
 6 Yes        
 7 Yes        
 8 Yes        
 9 Yes        
10 Yes        
# ℹ 4,267 more rows
…
